<?xml version="1.0" standalone="no"?>
<!DOCTYPE svg PUBLIC "-//W3C//DTD SVG 20010904//EN"
 "http://www.w3.org/TR/2001/REC-SVG-20010904/DTD/svg10.dtd">
<svg version="1.0" xmlns="http://www.w3.org/2000/svg"
 width="260.000000pt" height="260.000000pt" viewBox="0 0 260.000000 260.000000"
 preserveAspectRatio="xMidYMid meet">
<metadata>
Created by potrace 1.11, written by Peter Selinger 2001-2013
</metadata>
<g transform="translate(0.000000,260.000000) scale(0.100000,-0.100000)"
fill="#000000" stroke="none">
<path d="M1290 2561 c0 -10 -3 -39 -6 -65 -7 -45 -6 -46 21 -46 27 0 28 1 21
46 -3 26 -6 55 -6 65 0 11 -7 19 -15 19 -8 0 -15 -8 -15 -19z"/>
<path d="M1269 2405 c-15 -8 -34 -31 -44 -51 -15 -31 -15 -43 -6 -76 11 -34
10 -43 -6 -65 -44 -61 -63 -100 -63 -130 0 -31 1 -32 26 -23 14 6 72 10 129
10 57 0 115 -4 129 -10 25 -9 26 -8 26 23 0 30 -19 69 -63 130 -16 22 -17 31
-6 65 10 33 9 45 -6 76 -16 32 -59 67 -82 66 -4 -1 -20 -7 -34 -15z"/>
<path d="M1189 2021 c-72 -14 -129 -43 -189 -98 -30 -28 -64 -52 -75 -54 -15
-3 -21 -15 -26 -44 -3 -22 -11 -50 -17 -62 -7 -12 -18 -48 -25 -79 -13 -54
-15 -57 -57 -73 -26 -9 -46 -24 -48 -34 -4 -19 18 -23 34 -7 20 20 198 50 360
60 114 8 206 8 320 0 160 -10 338 -40 358 -60 16 -16 38 -12 34 7 -2 10 -22
25 -48 34 -42 16 -44 19 -57 73 -7 31 -18 67 -25 79 -6 12 -14 40 -17 62 -5
29 -11 41 -26 44 -11 2 -46 27 -79 57 -79 71 -141 94 -271 99 -55 2 -121 0
-146 -4z"/>
<path d="M1100 1579 c-220 -19 -343 -50 -285 -73 18 -7 20 -49 3 -76 -10 -16
-10 -24 0 -40 8 -14 12 -73 12 -195 l0 -175 -142 0 c-141 0 -177 -7 -164 -29
5 -8 75 -11 224 -11 l217 1 130 57 130 58 5 109 c3 61 8 115 12 121 4 6 21 17
37 23 24 10 34 10 60 -3 37 -19 40 -32 44 -156 l2 -94 130 -58 130 -57 217 -1
c149 0 219 3 224 11 13 22 -23 29 -163 29 l-143 0 0 175 c0 122 4 181 12 195
10 16 10 24 0 40 -17 27 -15 69 3 76 60 23 -64 53 -305 74 -131 11 -253 11
-390 -1z m-76 -245 c13 -12 16 -41 16 -148 l0 -133 -43 -17 c-23 -9 -48 -16
-55 -16 -20 0 -17 279 4 308 18 26 56 29 78 6z m640 -6 c21 -29 24 -308 4
-308 -7 0 -32 7 -55 16 l-43 17 0 133 c0 107 3 136 16 148 22 23 60 20 78 -6z"/>
<path d="M1068 985 l-237 -104 -153 -3 c-128 -3 -153 -5 -153 -18 0 -13 93
-15 780 -15 687 0 780 2 780 15 0 13 -27 16 -160 20 l-160 5 -200 89 c-110 49
-214 95 -231 102 -29 12 -42 7 -266 -91z"/>
<path d="M524 739 c-11 -18 9 -28 66 -31 l55 -3 3 -232 2 -233 -167 -2 -168
-3 -3 -96 c-2 -69 1 -99 10 -107 10 -8 104 13 358 79 190 49 346 89 348 89 1
0 2 115 2 255 l0 255 50 0 50 0 0 -240 0 -240 -88 -102 c-108 -126 -109 -128
-82 -128 13 0 60 38 126 102 l104 101 0 168 c0 165 0 168 25 198 52 61 133 60
183 -4 21 -26 22 -39 22 -195 l0 -167 104 -101 c66 -64 113 -102 126 -102 27
0 25 3 -82 127 l-88 101 0 241 0 241 50 0 50 0 0 -255 c0 -140 1 -255 3 -255
1 0 157 -40 347 -89 254 -66 348 -87 358 -79 9 8 12 38 10 107 l-3 96 -168 3
-167 2 2 233 3 232 60 5 c44 4 60 9 60 20 0 13 -94 15 -777 18 -554 1 -779 -1
-784 -9z m446 -264 l0 -235 -50 0 -50 0 0 228 c0 126 3 232 7 235 3 4 26 7 50
7 l43 0 0 -235z m768 -2 l2 -233 -50 0 -50 0 0 236 0 235 48 -3 47 -3 3 -232z
m-943 181 c12 -13 15 -32 13 -88 l-3 -71 -45 0 -45 0 -3 69 c-2 53 1 72 14 87
21 23 47 24 69 3z m1089 -3 c13 -15 16 -34 14 -87 l-3 -69 -45 0 -45 0 -3 71
c-2 56 1 75 13 88 22 21 48 20 69 -3z m-1096 -247 c19 -13 22 -24 22 -90 l0
-74 -50 0 -50 0 0 70 c0 57 4 74 20 90 24 24 29 24 58 4z m1092 -4 c16 -16 20
-33 20 -90 l0 -70 -50 0 -50 0 0 74 c0 66 3 77 22 90 29 20 34 20 58 -4z"/>
</g>
</svg>
