[
  {
    "settings": {
      "openEditInWindow": false,
      "openEditInWindow.popup": false,
      "windowPosition": {},
      "show-badge": true,
      "disableAll": false,
      "exposeIframes": false,
      "exposeStyleName": false,
      "newStyleAsUsercss": false,
      "styleViaASS": false,
      "styleViaXhr": false,
      "patchCsp": false,
      "urlInstaller": true,
      "config.autosave": true,
      "schemeSwitcher.enabled": "system",
      "schemeSwitcher.nightStart": "18:00",
      "schemeSwitcher.nightEnd": "06:00",
      "popup.enabledFirst": true,
      "popup.stylesFirst": true,
      "popup.autoResort": false,
      "popup.borders": false,
      "popup.findSort": "u",
      "manage.onlyEnabled": false,
      "manage.onlyLocal": false,
      "manage.onlyUsercss": false,
      "manage.onlyEnabled.invert": false,
      "manage.onlyLocal.invert": false,
      "manage.onlyUsercss.invert": false,
      "manage.actions.expanded": true,
      "manage.backup.expanded": true,
      "manage.filters.expanded": true,
      "manage.minColumnWidth": 750,
      "manage.newUI": true,
      "manage.newUI.favicons": false,
      "manage.newUI.faviconsGray": true,
      "manage.newUI.targets": 3,
      "manage.newUI.sort": "title,asc",
      "manage.searchMode": "meta",
      "editor.options": {},
      "editor.toc.expanded": true,
      "editor.options.expanded": true,
      "editor.lint.expanded": true,
      "editor.publish.expanded": true,
      "editor.lineWrapping": true,
      "editor.smartIndent": true,
      "editor.indentWithTabs": false,
      "editor.tabSize": 4,
      "editor.keyMap": "default",
      "editor.theme": "default",
      "editor.beautify": {
        "selector_separator_newline": true,
        "newline_before_open_brace": false,
        "newline_after_open_brace": true,
        "newline_between_properties": true,
        "newline_before_close_brace": true,
        "newline_between_rules": false,
        "preserve_newlines": true,
        "end_with_newline": false,
        "indent_conditional": true,
        "indent_mozdoc": true
      },
      "editor.beautify.hotkey": "",
      "editor.lintDelay": 300,
      "editor.linter": "csslint",
      "editor.lintReportDelay": 500,
      "editor.matchHighlight": "token",
      "editor.autoCloseBrackets": true,
      "editor.autocompleteOnTyping": false,
      "editor.contextDelete": false,
      "editor.selectByTokens": true,
      "editor.arrowKeysTraverse": true,
      "editor.appliesToLineWidget": true,
      "editor.autosaveDraft": 10,
      "editor.livePreview": false,
      "editor.targetsFirst": true,
      "editor.colorpicker": true,
      "editor.colorpicker.hexUppercase": false,
      "editor.colorpicker.hotkey": "",
      "editor.colorpicker.color": "#0dc300",
      "editor.colorpicker.maxHeight": 300,
      "hotkey._execute_browser_action": "",
      "hotkey.openManage": "",
      "hotkey.styleDisableAll": "",
      "sync.enabled": "none",
      "iconset": -1,
      "badgeDisabled": "#8B0000",
      "badgeNormal": "#006666",
      "headerWidth.edit": 280,
      "headerWidth.install": 280,
      "headerWidth.manage": 280,
      "popupWidth": 246,
      "popupWidthMax": 280,
      "updateInterval": 24,
      "updateOnlyEnabled": false,
      "popup.breadcrumbs": true,
      "popup.breadcrumbs.usePath": false
    },
    "order": {
      "main": [
        "2edae1c0-ec04-403f-a107-3b3a197825b8",
        "d23737cf-2ffa-47e8-8dd5-3133aef1d46f",
        "171ad63e-2fc0-4402-a94c-f60c3430b1d5",
        "9ddaaf8b-96a7-4969-840e-d416d670f688",
        "a74fd54f-deb6-4861-907b-272776ac3518",
        "96e51efb-ff36-4950-bf03-8eda3fe43989",
        "5c050f16-af92-413e-9f46-bd188334e432",
        "2c597a50-49f1-4721-90be-ef78cebbab5a",
        "54efc5f8-976c-45e3-8ae1-e6da28a7b503",
        "9951dd1a-5c5f-4505-aa6d-4b9cff4761e1",
        "cf0ab818-3ab7-444b-af26-ec319436e05b",
        "a5a9ba22-cb07-4f89-98a8-171640243078",
        "04713291-6abc-4654-bc39-8a7ad2b91040",
        "1b0e0463-4fa9-4cbd-a129-7dc51ecb0020",
        "e24c8257-5eea-4965-a816-f1debf4c46a8",
        "22768204-4e9e-4fa9-bd9d-fbe8207d8954",
        "dfeb0b24-4102-48f3-b247-947bfdbf20ee",
        "d9b3424d-2c6e-4c47-9d73-2d46b4feaef0",
        "061577e6-f3a1-42cf-a1d7-ae3e778c5c7b",
        "76aba849-d9f8-4b1a-a7cd-a0daa360bc41",
        "152e2c27-d9e8-4839-9fa1-8c89910a5dde",
        "53c8c352-bc94-4c41-a428-5ae15c52df01",
        "c66fd31c-7091-4971-83ff-77a93606ae74",
        "85b8e19f-3976-4aa9-a7ce-b77eec2f9dc7",
        "492d52ff-b901-491d-8640-ccfd0beedaee",
        "14128516-a486-4112-a1c9-cf202ba8596f",
        "308060b8-b1cc-47a6-9c6b-66e91856f797",
        "3c9920b7-f447-4e76-9593-3add8ba4aa16",
        "d460b84f-19ca-4f5c-88b7-ceade2bf2c59"
      ],
      "prio": []
    }
  },
  {
    "enabled": false,
    "installDate": 1664555294890,
    "name": "00 focus RGAA 10.7",
    "sections": [
      {
        "code": "*:focus {\n    outline: dashed 2px #d50949 !important; \n    border: dashed 2px #d50949 !important;\n}\n\n/* exemple de réactivation de focus sur materialize\n.btn, .btn-flat, .btn-floating, .btn-large {\n    outline: inherit;\n}\n*/"
      }
    ],
    "updateDate": 1707471434375,
    "_id": "2edae1c0-ec04-403f-a107-3b3a197825b8",
    "_rev": 1719911550955,
    "id": 1
  },
  {
    "enabled": false,
    "installDate": 1665505594829,
    "name": "RGAA 09.3 listes",
    "sections": [
      {
        "code": "html {\n    counter-reset: list-ul list-ol list-dl;\n}\n\nbody::after {\n    background-color: #333;\n    bottom: 1em;\n    color: #D3E8EE;\n    font: 400 1.5rem/1.5 sans-serif;\n    font-family: -apple-system, BlinkMacSystemFont, \"Segoe UI\", Roboto,\n        Oxygen-Sans, Ubuntu, Cantarell, \"Helvetica Neue\", sans-serif;\n    left: 1em;\n    padding: 0.75rem 1rem ;\n    position: fixed;\n    right: auto;\n    top: auto;\n    width: auto;\n    white-space: pre;\n    z-index: 2147483647;\n    content: \"<ul> : \" counter(list-ul) \"\\a <ol> : \" counter(list-ol) \"\\a <dl> : \" counter(list-dl) \"\\a\" ;\n}\n\nul,\n[role=\"list\"] {\n    border: 2px #095312 dashed !important;\n    counter-increment: list-ul !important;\n}\n\nol {\n    border: 2px #220e6f dashed !important;\n    counter-increment: list-ol !important;\n}\n\ndl {\n    border: 2px #e833de dashed !important;\n    counter-increment: list-dl !important;\n}\n\nul::before,\nol::before,\ndl::before,\n[role=\"list\"]::before {\n    content: \"<ul>\" !important;\n    font-size: 0.875rem !important;\n    background: #70d970 !important;\n    color: black !important;\n    display: inline-block !important;\n    border-radius: 0.25rem;\n    padding: 0.125rem;\n    margin-right: 0.25rem;\n}\n\nul::before {\n    content: \"<ul>\" !important;\n}\n\n[role=\"list\"]::before {\n    content: \"<ul> ARIA\" !important;\n}\n\nol::before {\n    content: \"<ol>\" !important;\n    background: #b4c6f1 !important;\n}\n\ndl::before {\n    content: \"<dl>\" !important;\n    background: #e2aae8 !important;\n}\n\nul li,\nol li,\ndl dt,\ndl dd,\n[role=\"list\"] [role=\"listitem\"]{\n    border: 2px #358a24 dashed !important;\n}"
      }
    ],
    "updateDate": 1714497968595,
    "_id": "2c597a50-49f1-4721-90be-ef78cebbab5a",
    "_rev": 1719993956127,
    "id": 2
  },
  {
    "enabled": false,
    "installDate": 1666700602957,
    "name": "RGAA 01.x",
    "sections": [
      {
        "code": "/* Identification des images et des alt manquants, utiliser l'extension webdevelopper pour vérifier le contenu des alts car impossible à injecter en CSS : la balise img est une balise de remplacement et ne permet d'ajouter des ::before ou des ::after */\nhtml {\n\tcounter-reset: count1 count2 count3 count4 count5;\n}\n\nbody::after {\n\tbackground-color: #333;\n\tbottom: 1em;\n\tcolor: #D3E8EE;\n\tfont: 400 1.5rem/1.5 sans-serif;\n\tfont-family: -apple-system, BlinkMacSystemFont, \"Segoe UI\", Roboto,\n\t\tOxygen-Sans, Ubuntu, Cantarell, \"Helvetica Neue\", sans-serif;\n\tleft: 1em;\n\tpadding: 0.75rem 1rem ;\n\tposition: fixed;\n    overflow: auto;\n\tright: auto;\n\ttop: auto;\n\twidth: auto;\n\twhite-space: pre;\n\tz-index: 2147483647;\n\tcontent: \"<img> ... : \" counter(count1) \"\\a <svg> --- : \" counter(count2) \"\\a <figure> __ : \" counter(count4) \"\\a lien image - - - : \" counter(count5) \"\\a alt absent : \" counter(count3) \"\\a\";\n}\n\nimg[src] {\n    counter-increment: count1 !important;\n    border: #068611 dotted 3px !important;\n}\n\nsvg {\n    counter-increment: count2 !important;\n    border: #3902ff dashed 3px !important;\n}\n\nimg:not([alt]):not([title]):not([aria-labelledby]):not([aria-label]):not([aria-hidden]):not([role=\"presentation\"]) {\n    counter-increment: count3 !important;\n    border-color: #a80606 !important;\n    display: block !important;\n    margin: 1rem !important;\n}\n\nsvg[role=\"img\"]:not([aria-labelledby]):not([aria-label]):not(:has(title)):not([aria-hidden=\"true\"]) {\n    counter-increment: count3 !important;\n    border-color: #a80606 !important;\n    display: block !important;\n    margin: 1rem !important;\n}\n\nfigure {\n    counter-increment: count4 !important;\n    border: #1106a8 solid 3px !important;\n}\n\nfigure img:not([alt]):not([title]):not([aria-labelledby]):not([aria-label]):not([aria-hidden]):not([role=\"presentation\"]) {\n    border-color: #a80606 !important;\n}\n\na img[src][alt],\na img[src][title],\na svg {\n    counter-increment: count5 !important;\n    border: 1px dashed #737373 !important;\n}\n\na:has(img)::before,\na:has(svg)::before {\n    content: 'a > img' !important;\n    color: #fff !important;\n    background-color: #737373 !important;\n    font-size: 0.75rem !important;\n    display: inline-block !important;\n    font-weight: normal !important;\n    text-transform: none !important;\n    border-radius: 0.25rem;\n    padding: 0.125rem;\n    margin-left: 0.25rem;\n    margin-right: 0.25rem;\n}\n\na:has(svg)::before {\n    content: 'a > svg' !important;\n}\n\na:has(figure)::before {\n    content: 'a > figure' !important;\n}"
      }
    ],
    "updateDate": 1711007373093,
    "_id": "d23737cf-2ffa-47e8-8dd5-3133aef1d46f",
    "_rev": 1720020012608,
    "id": 5
  },
  {
    "enabled": false,
    "installDate": 1666703366982,
    "name": "RGAA 10.12 Espace texte",
    "sections": [
      {
        "code": "* {\n    line-height: 1.5 !important;\n    letter-spacing: 0.12em !important;\n    word-spacing: 0.16em !important;\n}\n\np {\n    margin-bottom: 2em !important;\n}"
      }
    ],
    "updateDate": 1666877800559,
    "_id": "cf0ab818-3ab7-444b-af26-ec319436e05b",
    "_rev": 1719923203100,
    "id": 6
  },
  {
    "enabled": false,
    "installDate": 1666882891790,
    "name": "RGAA 10.06 Lien dans texte environnant",
    "sections": [
      {
        "code": "/* on stabilote les liens sauf dans le header et le footer */\n\na {\n    background-color: yellow;\n    border-left: #d10101 dotted 2px;\n    border-right: #d10101 dotted 2px;\n}\n\nheader a,\nfooter nav a {\n    background-color: inherit;\n    border-left: inherit;\n    border-right: inherit;\n}"
      }
    ],
    "updateDate": 1710343529799,
    "_id": "a74fd54f-deb6-4861-907b-272776ac3518",
    "_rev": 1718296221397,
    "id": 8
  },
  {
    "enabled": false,
    "installDate": 1666885715804,
    "name": "RGAA 09.2 Balises structurantes",
    "sections": [
      {
        "code": "/* Présence des balises de structure de page header, nav, main, footer\n\n*/\n\nhtml {\n\tcounter-reset: fails nav header main footer;\n}\nbody::after {\n\tbackground-color: #333;\n\tbottom: 1em;\n\tcolor: #D3E8EE;\n\tfont: 400 1rem/1.5 sans-serif;\n\tfont-family: -apple-system, BlinkMacSystemFont, \"Segoe UI\", Roboto,\n\t\tOxygen-Sans, Ubuntu, Cantarell, \"Helvetica Neue\", sans-serif;\n\tleft: 1em;\n\tpadding: 0.75rem 1rem ;\n\tposition: fixed;\n\tright: auto;\n\ttop: auto;\n\twidth: auto;\n\twhite-space: pre;\n\tz-index: 2147483647;\n\tcontent: \"Balises structurantes :\\a\" counter(header) \" header\\a\" \"\" counter(nav) \" nav\\a\" \"\" counter(main) \" main ou role main\\a\" \"\" counter(footer) \" footer\\a\";\n}\n\n/* NC */\n\nbody:not(:has(header)) {\n    counter-increment: fails;\n    border: 4px dashed #be3f55 !important;\n}\nbody:not(:has(nav)) {\n    counter-increment: fails;\n    border: 4px dashed #be3f55 !important;\n}\nbody:not(:has(main)):not(:has([role=\"main\"])) {\n    counter-increment: fails;\n    border: 4px dashed #be3f55 !important;\n}\nbody:not(:has(footer)) {\n    counter-increment: fails;\n    border: 4px dashed #be3f55 !important;\n}\n\n\n/* C */\n\nheader {\n    border: 4px dashed green !important;\n    counter-increment: header;\n}\nnav {\n    border: 4px dashed #200ecf !important;\n    counter-increment: nav;\n}\nmain,\n[role=\"main\"] {\n    border: 4px dashed #6c7ce8 !important;\n    counter-increment: main;\n}\nfooter {\n    border: 4px dashed green !important;\n    counter-increment: footer;\n}"
      }
    ],
    "updateDate": 1714632336723,
    "_id": "96e51efb-ff36-4950-bf03-8eda3fe43989",
    "_rev": 1720008243263,
    "id": 9
  },
  {
    "enabled": false,
    "installDate": 1667393205164,
    "name": "RGAA 08.9 balises non sémantiques",
    "sections": [
      {
        "code": "html {\n\tcounter-reset: brbr countp;\n}\n\nbody::after {\n\tbackground-color: #333;\n\tbottom: 1em;\n\tcolor: #D3E8EE;\n\tfont: 400 1rem/1.5 sans-serif;\n\tfont-family: -apple-system, BlinkMacSystemFont, \"Segoe UI\", Roboto,\n\t\tOxygen-Sans, Ubuntu, Cantarell, \"Helvetica Neue\", sans-serif;\n\tleft: 1em;\n\tpadding: 0.75rem 1rem ;\n\tposition: fixed;\n\tright: auto;\n\ttop: auto;\n\twidth: auto;\n\twhite-space: pre;\n\tz-index: 2147483647;\n\tcontent: \"Risque de double br : \" counter(brbr) \"\\a\" \"Risque de <p> vides : \" counter(countp) \"\\a\" ;\n}\n\n\n/* on fait apparaître les balises div et sémantiques vides */\n\ndiv:empty,\nh1:empty,\nh2:empty,\nh3:empty,\nh4:empty,\nh5:empty,\nh6:empty{\n    border: 2px #850c1a dashed !important;\n}\np:empty {\n    counter-increment: countp !important;\n    border: 2px #8c1480 dashed !important;\n}\nbr + br,\nbr ~ br {\n    counter-increment: brbr !important;\n    border: 4px #2e2eb2 dashed !important;\n}\n\n/* on fait apparaître toutes les balises sémantiques de base */\n/* pour isoler les passages de textes qui ne sont pas balisés */\n\nblockquote,\nq {\n    border: 3px solid red!important;\n}\n\nblockquote:before {\n    content: \"<blockquote> \"!important;\n}\n\nq:before {\n    content: \"<q> \"!important;\n}\n\nh1,\nh2,\nh3,\nh4,\nh5,\nh6 {\n    border: 3px rgb(255, 143, 143) solid !important;\n}\n\np {\n    border: 3px rgb(255, 143, 143) solid !important;\n}\n\nul,\nol,\ndl {\n    border: 3px #70d970 solid !important;\n}\n\nli, \ndt, \ndd {\n    border: 2px #70d970 solid !important;\n}\n\nh1::before,\nh2::before,\nh3::before,\nh4::before,\nh5::before,\nh6::before,\n[role=\"heading\"]::before {\n    content: \"<hx>\";\n    font-size: 0.875rem !important;\n    background: rgb(255, 143, 143);\n    color: black;\n    display: block;\n}\n\nh1::before {\n    content: \"<h1>\" !important;\n}\nh2::before {\n    content: \"<h2>\" !important;\n}\nh3::before {\n    content: \"<h3>\" !important;\n}\nh4::before {\n    content: \"<h4>\" !important;\n}\nh5::before {\n    content: \"<h5>\" !important;\n}\nh6::before {\n    content: \"<h6>\" !important;\n}\n[role=\"heading\"][aria-level]::before {\n    content: \"<h\" attr(aria-level) \"> ARIA\" !important;\n}\ndiv {\n    border: thin #8c1414 dotted !important;\n}\ndiv::before {\n    content: \"<div>\" !important;\n    font-size: 0.625rem !important;\n    line-height: 1 !important;\n    color: black;\n    background: rgb(255, 143, 143);    \n}\n\np::before {\n    content: \"<p>\" !important;\n    font-size: 0.875rem !important;\n    background: #efceec;\n    color: black;\n    display: block;\n}\n\nul::before,\nol::before {\n    content: \"<ul>\" !important;\n    font-size: 0.875rem !important;\n    background: #70d970;\n    color: black;\n    display: block;\n}\n"
      }
    ],
    "updateDate": 1720102500412,
    "_id": "5c050f16-af92-413e-9f46-bd188334e432",
    "_rev": 1720102812981,
    "id": 10
  },
  {
    "enabled": false,
    "installDate": 1667490647054,
    "name": "RGAA 06.1 et 6.2 liens",
    "sections": [
      {
        "code": "html {\n\tcounter-reset: lien title label nohref;\n}\n\nbody::after {\n\tbackground-color: #333;\n\tbottom: 1em;\n\tcolor: #D3E8EE;\n\tfont: 400 1rem/1.5 sans-serif;\n\tfont-family: -apple-system, BlinkMacSystemFont, \"Segoe UI\", Roboto,\n\t\tOxygen-Sans, Ubuntu, Cantarell, \"Helvetica Neue\", sans-serif;\n\tleft: 1em;\n\tpadding: 0.75rem 1rem ;\n\tposition: fixed;\n\tright: auto;\n\ttop: auto;\n\twidth: auto;\n\twhite-space: pre;\n\tz-index: 2147483647;\n\tcontent: \"Balises <a> : \" counter(lien) \"\\a a[title]> : \" counter(title) \"\\a a[aria-label]> : \" counter(label) \"\\a Balises <a> sans href : \" counter(nohref) \"\\a \";\n}\n\na[href] {\n    padding-bottom: 2px;\n    border-bottom: blue solid 3px !important;\n    counter-increment: lien !important;\n    box-shadow: inset 0px -2px 0px 0px #FFF;\n}\n\na[href][title]::before {\n    content: '[title=\"' attr(title) '\"]⤵' !important;;\n    background-color: rgba(0, 0, 255, 0.7) !important;\n    counter-increment: title !important;\n    color: #fff !important;\n    font-size: 0.875rem !important;\n    display: block !important;\n    border-radius: 0.25rem;\n    padding: 0.125rem;\n    margin-right: 0.25rem;\n}\n\na[href][aria-label]::before {\n    content: '[aria-label=\"' attr(aria-label) '\"]⤵' !important;;\n    background-color: rgba(8, 89, 42, .7) !important;\n    counter-increment: label !important;\n    color: #fff !important;\n    font-size: 0.875rem !important;\n    display: block !important;\n    border-radius: 0.25rem;\n    padding: 0.125rem;\n    margin-right: 0.25rem;\n}\n\na:not([href]) {\n    border: #c60303 dashed 2px !important;\n    counter-increment: nohref !important;\n}\n\n    "
      }
    ],
    "updateDate": 1716880941965,
    "_id": "9ddaaf8b-96a7-4969-840e-d416d670f688",
    "_rev": 1719576413869,
    "id": 11
  },
  {
    "enabled": false,
    "installDate": 1667903197642,
    "name": "RGAA 02 iframes",
    "sections": [
      {
        "code": "html {\n\tcounter-reset: count title notitle;\n}\nbody::after {\n\tbackground-color: #333;\n\tbottom: 1em;\n\tcolor: #D3E8EE;\n\tfont: 400 1.5rem/1.5 sans-serif;\n\tfont-family: -apple-system, BlinkMacSystemFont, \"Segoe UI\", Roboto,\n\t\tOxygen-Sans, Ubuntu, Cantarell, \"Helvetica Neue\", sans-serif;\n\tleft: 1em;\n\tpadding: 0.75rem 1rem ;\n\tposition: fixed;\n\tright: auto;\n\ttop: auto;\n\twidth: auto;\n\twhite-space: pre;\n\tz-index: 2147483647;\n\tcontent: \"<iframe> : \" counter(count) \"\\a <iframe title> __ : \" counter(title) \"\\a<iframe> sans nom accessible --- : \" counter(notitle) \"\\a\";\n}\n\niframe:not([aria-hidden=\"true\"]) {\n    counter-increment: count !important;\n}\n\niframe:not([title]):not([aria-label]):not([aria-labelledby]):not([aria-hidden=\"true\"]) {\n    counter-increment: notitle !important;\n    border: red dashed 4px !important;\n}\n\niframe[title]:not([aria-hidden=\"true\"]) {\n    counter-increment: title !important;\n    border: green solid 4px !important;\n    display: block !important;\n}\n\n*:has(> iframe[title]:not([aria-hidden=\"true\"]))::before {\n    content: \"Attribut title présent\" !important;\n    display: inline-block;\n    font-size: 0.875rem !important;\n    line-height: 1 !important;\n    color: green !important;\n    background-color: #fff !important;\n}\n\n*:has(> iframe[aria-label]:not([aria-hidden=\"true\"]))::before {\n    content: \"Attribut aria-label présent\" !important;\n    display: inline-block;\n    font-size: 0.875rem !important;\n    line-height: 1 !important;\n    color: green !important;\n    background-color: #fff !important;\n}\n\n"
      }
    ],
    "updateDate": 1710932689576,
    "_id": "54efc5f8-976c-45e3-8ae1-e6da28a7b503",
    "_rev": 1718977883600,
    "id": 13
  },
  {
    "enabled": false,
    "installDate": 1667905921130,
    "name": "RGAA 10.01 balises et attr obsolètes",
    "sections": [
      {
        "code": "/*  utiliser également le validateur pour analyser les obsolescences \n    https://validator.w3.org/\n    TODO : faire apparaître les balises et attributs exacts dans le volet de gauche\n*/\nhtml {\n    counter-reset: count count1 count2 count3;\n}\nbody::after {\n    background-color: #333;\n    bottom: 1em;\n    color: #D3E8EE;\n    font: 400 1rem/1.5 sans-serif;\n    font-family: -apple-system, BlinkMacSystemFont, \"Segoe UI\", Roboto,\n    Oxygen-Sans, Ubuntu, Cantarell, \"Helvetica Neue\", sans-serif;\n    left: 1em;\n    padding: 0.75rem 1rem;\n    position: fixed;\n    right: auto;\n    top: auto;\n    width: auto;\n    white-space: pre;\n    z-index: 2147483647;\n    content: \"Balises obsoletes : \" counter(count) \"\\a\" \"Attributs obsoletes : \" counter(count1) \"\\a\"  \"width : \" counter(count2) \"\\a\" \"height : \" counter(count3) \"\\a\";\n}\n\nblink,\ncenter,\nfont,\nmarquee,\ns,\nstrike,\ntt,\nbig {\n    counter-increment: count !important;\n    display: block !important;\n    border: red solid 4px !important;\n}\n\n*[align],\n*[alink],\n*[background],\n*[bgcolor],\n*[border],\n*[cellpadding],\n*[cellspacing],\n*[char],\n*[charoff],\n*[clear],\n*[compact],\n*[color],\n*[hspace],\n*[link],\n*[marginheight],\n*[marginwidth],\n*[text],\n*[valign],\n*[vlink],\n*[vspace],\n*[size] {\n    counter-increment: count1 !important;\n    border: red dashed 4px !important;\n}\n\n*:not(img):not(object):not(embed):not(canvas):not(svg):not(svg *):not(image):not(rect)[width] {\n    counter-increment: count2 !important;\n    border: #3400c3 dashed 4px !important;\n    display: block !important;\n}\n\n*:not(img):not(object):not(embed):not(canvas):not(svg):not(svg *):not(image):not(rect)[height] {\n    counter-increment: count3 !important;\n    border: #ff7b00 dashed 4px !important;\n    display: block !important;\n}\n\n*:has(> iframe[width][height]):before {\n    border: 4px solid rgb(145, 9, 32) !important;\n    content: 'width et height présents dans iframe';\n    display: inline-block;\n    padding: 0.25rem;\n    font-size: 0.875rem !important;\n    line-height: 1 !important;\n    color: rgb(145, 9, 32) !important;\n    background-color: #fff !important;\n}\n*:has(> iframe[width][height][frameborder]):before {\n    border: 4px solid rgb(145, 9, 32) !important;\n    content: 'width, height et frameborder présents dans iframe';\n    display: block;\n    padding: 0.25rem;\n    font-size: 0.875rem !important;\n    line-height: 1 !important;\n    color: rgb(145, 9, 32) !important;\n    background-color: #fff !important;\n}\n*:has(> iframe[frameborder]):before {\n    border: 4px solid rgb(145, 9, 32) !important;\n    content: 'frameborder présent dans iframe';\n    display: inline-block;\n    padding: 0.25rem;\n    font-size: 0.875rem !important;\n    line-height: 1 !important;\n    color: rgb(145, 9, 32) !important;\n    background-color: #fff !important;\n}"
      }
    ],
    "updateDate": 1717518529884,
    "_id": "9951dd1a-5c5f-4505-aa6d-4b9cff4761e1",
    "_rev": 1719584822578,
    "id": 14
  },
  {
    "enabled": false,
    "installDate": 1669818547624,
    "name": "RGAA 11.09 intitulés des boutons de formulaires ",
    "sections": [
      {
        "code": "/* on compte et on met en évidence tous les boutons qui sont éligibles c'est à dire dans la balise form.\n\n*/\nhtml {\n\tcounter-reset: count;\n}\nbody::after {\n\tbackground-color: #333;\n\tbottom: 1em;\n\tcolor: #D3E8EE;\n\tfont: 400 1rem/1.5 sans-serif;\n\tfont-family: -apple-system, BlinkMacSystemFont, \"Segoe UI\", Roboto,\n\t\tOxygen-Sans, Ubuntu, Cantarell, \"Helvetica Neue\", sans-serif;\n\tleft: 1em;\n\tpadding: 0.75rem 1rem ;\n\tposition: fixed;\n\tright: auto;\n\ttop: auto;\n\twidth: auto;\n\twhite-space: pre;\n\tz-index: 2147483647;\n\tcontent: \"Form > button : \" counter(count) \"\\a\";\n}\n\nform {\n    border: #108800 solid 4px !important;\n}\n\nform:has(button) button,\nform:has(input) input[type=\"submit\"],\nform:has(input) input[type=\"button\"] {\n    counter-increment: count !important;\n    border: #d10830 dashed 4px !important;\n}"
      }
    ],
    "updateDate": 1710405409383,
    "_id": "a5a9ba22-cb07-4f89-98a8-171640243078",
    "_rev": 1713444688907,
    "id": 17
  },
  {
    "enabled": false,
    "installDate": 1670581058067,
    "name": "RGAA 10.03 montrer les éléments cachés",
    "sections": [
      {
        "code": "/* On fait apparaître tout ce qui est prévu pour les personnes aveugles, attention ce n'est pas exhaustif ni utilisable pour tout projet */\n\ni, .fa, .icon, .mat-icon, .sr-only, .is-sr-only, .visuallyhidden , .visually-hidden { \n    all: initial !important;\n    border: 5px #a823af dashed !important;\n}"
      }
    ],
    "updateDate": 1710403801285,
    "_id": "04713291-6abc-4654-bc39-8a7ad2b91040",
    "_rev": 1710403801285,
    "id": 18
  },
  {
    "enabled": false,
    "installDate": 1671096040661,
    "name": "RGAA 12.06 nav et landmarks",
    "sections": [
      {
        "code": "/* On affiche les landmarks et on entoure en rouge si absent\n\n*/\n\nhtml {\n\tcounter-reset: banner navi search main contentinfo;\n}\nbody::after {\n\tbackground-color: #333;\n\tbottom: 1em;\n\tcolor: #D3E8EE;\n\tfont: 400 1rem/1.5 sans-serif;\n\tfont-family: -apple-system, BlinkMacSystemFont, \"Segoe UI\", Roboto,\n\t\tOxygen-Sans, Ubuntu, Cantarell, \"Helvetica Neue\", sans-serif;\n\tleft: 1em;\n\tpadding: 0.75rem 1rem ;\n\tposition: fixed;\n\tright: auto;\n\ttop: auto;\n\twidth: auto;\n\twhite-space: pre;\n\tz-index: 2147483647;\n\tcontent: counter(banner) ' role=\"banner\"\\a' counter(navi) ' role=\"navigation\"\\a' counter(search) ' role=\"search\"\\a' counter(main) ' role=\"main\"\\a' counter(contentinfo) ' role=\"contentinfo\"\\a';\n}\n\n/* NC */\nnav[aria-label] {\n    counter-increment: countn !important;\n    border: 4px dashed #be693f !important;\n}\nheader:has(:not(nav[aria-label])) {\n    border: 4px dashed #d5030a !important;\n}\n/* NC */\n\nbody:not(:has(header[role=banner])) {\n    border: 4px dashed #be3f55 !important;\n}\nbody:not(:has(main[role=main])) {\n    border: 4px dashed #be3f55 !important;\n}\nbody:not(:has(footer[role=contentinfo])) {\n    counter-increment: count !important;\n    border: 4px dashed #be3f55 !important;\n}\n\n/* C */\nbody:has(header[role=banner]) {\n    border: 4px dashed green !important;\n}\nheader:has(nav[aria-label]) {\n    border: 4px dashed #1803d5 !important;\n}\nbody:has(main[role=main]) {\n    border: 4px dashed green !important;\n}\nbody:has(footer[role=contentinfo]) {\n    border: 4px dashed green !important;\n}\n\n/* message */\n[role]:before {\n    background-color: green !important;\n    color: #fff;\n    font-size: 0.875rem;\n    padding: 0.2rem 0.25rem;\n}\n\n[role=\"banner\"] {\n    counter-increment: banner;\n}\n\n[role=\"banner\"]:before {\n    content: 'role=\"'attr(role)'\"' !important;\n}\n\nheader:before {\n    content: '<header ! landmark absent !>' !important;\n    background-color: #c80404 !important;\n    color: #fff !important;\n    font-size: 0.875rem !important;\n    padding: 0.2rem 0.25rem !important;\n}\n\nheader[role=\"banner\"]:before {\n    content: '<header role=\"'attr(role)'\">' !important;\n    background-color: green !important;\n}\n\n[role=\"search\"] {\n    counter-increment: search;\n}\n\n[role=\"search\"]:before {\n    content: 'role=\"'attr(role)'\"' !important;\n}\n\n[role=\"navigation\"]:before {\n    content: 'role=\"'attr(role)'\"' !important;\n    counter-increment: navi;\n}\n\nnav:before {\n    content: '<nav ! landmark absent !>'!important;\n    background-color: #c80404 !important;\n    color: #fff !important;\n    font-size: 0.875rem !important;\n    padding: 0.2rem 0.25rem !important;\n}\n\nnav[role=\"navigation\"]:before {\n    content: '<nav role=\"'attr(role)'\">' !important;\n}\n\n[role=\"main\"] {\n    counter-increment: main;\n}\n\n[role=\"main\"]:before {\n    content: 'role=\"'attr(role)'\"' !important;\n}\n\nmain:before {\n    content: '<main ! landmark absent !>' !important;\n    background-color: #c80404 !important;\n    color: #fff !important;\n    font-size: 0.875rem !important;\n    padding: 0.2rem 0.25rem !important;\n}\n\nmain[role=\"main\"]:before {\n    content: '<main role=\"'attr(role)'\">' !important;\n    background-color: green !important;\n}\n\n[role=\"contentinfo\"] {\n    counter-increment: contentinfo;\n}\n\n[role=\"contentinfo\"]:before {\n    content: 'role=\"'attr(role)'\"' !important;\n}\n\nfooter:before {\n    content: '<footer ! landmark absent !>' !important;\n    background-color: #c80404 !important;\n    color: #fff !important;\n    font-size: 0.875rem !important;\n    padding: 0.2rem 0.25rem !important;\n}\n\nfooter[role=\"contentinfo\"]:before {\n    content: '<footer role=\"'attr(role)'\">' !important;\n    background-color: green !important;\n}\n"
      }
    ],
    "updateDate": 1710345472795,
    "_id": "1b0e0463-4fa9-4cbd-a129-7dc51ecb0020",
    "_rev": 1720008244866,
    "id": 19
  },
  {
    "enabled": false,
    "installDate": 1671186458753,
    "name": "RGAA 05.1, 5.6, 5.7 et 5.8 Tableaux caption, th, scope, headers et presentation",
    "sections": [
      {
        "code": "/* Mise en évidence des structures de tableaux\n*/\nhtml {\n\tcounter-reset: count;\n}\nbody::after {\n\tbackground-color: #333;\n\tbottom: 1em;\n\tcolor: #D3E8EE;\n\tfont: 400 1.5rem/1.5 sans-serif;\n\tfont-family: -apple-system, BlinkMacSystemFont, \"Segoe UI\", Roboto,\n\t\tOxygen-Sans, Ubuntu, Cantarell, \"Helvetica Neue\", sans-serif;\n\tleft: 1em;\n\tpadding: 0.75rem 1rem ;\n\tposition: fixed;\n\tright: auto;\n\ttop: auto;\n\twidth: auto;\n\twhite-space: pre;\n\tz-index: 2147483647;\n\tcontent: \"<table> : \" counter(count) \"\\a\";\n}\n\ntable {\n\tcounter-increment: count !important;\n    border: green dashed 4px !important;\n    position: relative;\n}\n\ntable td{\n    outline: #008000 dotted 1px ;\n}\n\ntable th {\n    outline: #003580 dashed 1px ;\n}\n\n\n/* y a-t-il un caption pour donner un résumé ? */\ntable:has(caption)::before {\n    content: '<caption> présent ';\n    background-color: #0fb;\n    color: #000;    \n    border-radius: 0.25rem;\n    padding: 0.125rem;\n    margin-right: 0.25rem;\n}\n\n/* on met en évidence les th et le paramétrage */\nth::before {\n    content: '<th scope=\"' attr(scope) '\">';\n    background-color: #fd0;\n    color: #000;    \n    border-radius: 0.25rem;\n    padding: 0.125rem;\n    margin-right: 0.25rem;\n}\n\nth[scope]::before {\n    content: '<th scope=\"' attr(scope) '\">';\n    background-color: #fd0;\n}\n\nth[headers]::before {\n    content: '<th headers=\"' attr(headers) '\">';\n    background-color: #fe0;\n}\n\nth:not([scope])::before {\n    content: '<th>';\n    display: inline-block;\n    font-size: 0.875rem !important;\n    line-height: 1 !important;\n    background-color: #ffd000 !important;\n    color: #000 !important;\n}\n\n/* tableau de présentation : vérifier qu'il n'y pas de caption et th */\ntable[role=\"presentation\"]::before {\n    content: '<table role=\"' attr(role) '\">';\n    background: #c0e68e;\n}\ntable[role=\"presentation\"] caption::before {\n    content: '😡 <caption>';\n    background-color: #fe0;\n    color: #d4153b;\n}\ntable[role=\"presentation\"] th::before {\n    content: '😡 <th>';\n    background-color: #fe0;\n    color: #d4153b;\n}\ntable:not([presentation]):not(thead) > tr:first-child > td::before,\ntable:not([presentation]) > thead > tr > td::before,\ntable:not([presentation]):not(thead) > tbody > tr:first-child > td::before{\n    content: \"<td>\";   \n    display: inline-block;\n    font-size: 0.875rem !important;\n    line-height: 1 !important;\n    background-color: #d70404 !important;\n    color: #fff !important;\n    border-radius: 0.25rem;\n    padding: 0.125rem;\n    margin-right: 0.25rem;\n}\ntable:not([presentation]) thead + tbody > tr:first-child > td::before {\n    content: '';\n    display: none;\n}"
      }
    ],
    "updateDate": 1709912749650,
    "_id": "e24c8257-5eea-4965-a816-f1debf4c46a8",
    "_rev": 1719584429402,
    "id": 20
  },
  {
    "enabled": false,
    "installDate": 1671456577530,
    "name": "RGAA 11.01 formulaires",
    "sections": [
      {
        "code": "/* Présence de labels et d'inputs */\n\nhtml {\n\tcounter-reset: count1 count2 count3 count4 count5;\n}\nbody::after {\n\tbackground-color: #333;\n\tbottom: 1em;\n\tcolor: #D3E8EE;\n\tfont: 400 1rem/1.5 sans-serif;\n\tfont-family: -apple-system, BlinkMacSystemFont, \"Segoe UI\", Roboto,\n\t\tOxygen-Sans, Ubuntu, Cantarell, \"Helvetica Neue\", sans-serif;\n\tleft: 1em;\n\tpadding: 0.75rem 1rem ;\n\tposition: fixed;\n\tright: auto;\n\ttop: auto;\n\twidth: auto;\n\twhite-space: pre;\n\tz-index: 2147483647;\n\tcontent: \"<input> : \" counter(count1) \"\\a <select> : \" counter(count5) \"\\a <label> : \" counter(count2) \"\\a ------------------------------- \\a <label> sans [for] : \" counter(count3) \"\\a <label> implicite : \" counter(count4) \"\\a\";\n}\n\ninput,\ntextarea {\n\tcounter-increment: count1 !important;\n    border: 4px dotted #398c12 !important;\n}\nselect {\n\tcounter-increment: count5 !important;\n    border: 4px dotted #148c12 !important;\n}\ninput:not([title]):not([id]):not([type=\"button\"]):not([type=\"submit\"]),\ntextarea:not([title]):not([id]),\nselect:not([title]):not([id]) {\n    border: 4px dashed #db0b2f !important;\n}\nlabel {\n    counter-increment: count2 !important;\n}\nform:not(:has(label[for])) {\n    counter-increment: count3 !important;\n}\nform label:has(input):before,\nform label:has(textarea):before,\nform label:has(select):before{\n    counter-increment: count4 !important;\n    content: 'Implicit label';\n    border: 4px solid #398c12 !important;\n    background: rgba(246, 255, 0, .5);\n    color: black;\n}\nform label:has(input:not([title]):not([id])) input {\n    border: 1px solid #666 !important;\n}\n"
      }
    ],
    "updateDate": 1710344227520,
    "_id": "22768204-4e9e-4fa9-bd9d-fbe8207d8954",
    "_rev": 1719397075049,
    "id": 21
  },
  {
    "enabled": false,
    "installDate": 1671791449095,
    "name": "RGAA 11.05 - 11.06 fieldset et legend",
    "sections": [
      {
        "code": "/* Présence de fieldsets et mise en évidence visuelle\nWIP\nà revoir complètement !\n\n */\n\nhtml {\n\tcounter-reset: count3;\n}\nbody::after {\n\tbackground-color: #333;\n\tbottom: 1em;\n\tcolor: #D3E8EE;\n\tfont: 400 1rem/1.5 sans-serif;\n\tfont-family: -apple-system, BlinkMacSystemFont, \"Segoe UI\", Roboto,\n\t\tOxygen-Sans, Ubuntu, Cantarell, \"Helvetica Neue\", sans-serif;\n\tleft: 1em;\n\tpadding: 0.75rem 1rem ;\n\tposition: fixed;\n\tright: auto;\n\ttop: auto;\n\twidth: auto;\n\twhite-space: pre;\n\tz-index: 2147483647;\n\tcontent: \"<fieldset> sans <legend> : \" counter(count3) \"\\a \";\n}\n\n/* comptage des fieldsets pas toujours fiable */\n\n\nfieldset {\n    border: 4px dashed #3fbe50 !important;\n}\n\nform fieldset > legend {\n    border: 4px dashed #3f43be !important;\n}\n\nform fieldset > * > legend {\n    border: 4px solid #e60835 !important;\n}\n\nform fieldset:not(:has(legend)) {\n    counter-increment: count3 !important;\n    border: 4px dotted #e60835 !important;\n}\n\nfieldset,\nlegend,\n[role=\"group\"] {\n    display: block !important;\n}\n\nfieldset {\n    border: 5px solid #0B1B34;\n    padding: 0;\n}\nfieldset > :first-child:not(legend) {\n    border: 5px solid #962E3F;\n}\n\nfieldset:after,\n[role=\"group\"]:after,\nlegend:before {\n    display: block;  \n    font-family: sans-serif !important;\n    font-size: 1rem !important;\n    color: #fff !important;\n    background: #0B1B34;\n    padding: 5px;\n}\n\nlegend {\n    background: #fff;\n    width: 100%;\n    color: #0B1B34;\n    border: 2px solid #0B1B34;\n    padding: 0;\n}\n\nlegend:before {\n    content: '<legend>' !important;\n}\n\nfieldset:after {\n    content: '<fieldset>' !important;\n}\n\nfieldset[role] {\n    border: 5px solid #962E3F;\n}\nfieldset[role]:after {\n    content: '<fieldset role=\"'attr(role)'\">' !important;\n    background: #962E3F;\n    color: #FFF;\n}\nfieldset[role=\"group\"] {\n    border: 5px solid #0B1B34;\n}\nfieldset[role=\"group\"]:after {\n    background: #0B1B34;\n}\n\nlegend[role] {\n    border: 2px solid #962E3F;\n}\nlegend[role]:before {\n    content: '<legend role=\"'attr(role)'\">' !important;\n    background: #962E3F;\n    color: #fff;\n}\n\n[role=\"group\"] {\n    border: 5px solid #962E3F;\n    padding: 0;\n}\n[role=\"group\"][aria-label],\n[role=\"group\"][aria-labelledby] {\n    border: 5px solid #0B1B34;\n}\n[role=\"group\"]:after {\n    content: 'role=\"group\" [PAS DE LÉGENDE]' !important;\n    background: #962E3F;\n}\n[role=\"group\"][aria-label]:after {\n    content: 'role=\"group\" aria-label=\"'attr(aria-label)'\"' !important;\n    background: #0B1B34;\n}\n[role=\"group\"][aria-labelledby]:after {\n    content: 'role=\"group\" aria-labelledby=\"'attr(aria-labelledby)'\"' !important;\n    background: #0B1B34;\n}"
      }
    ],
    "updateDate": 1710405287147,
    "_id": "d9b3424d-2c6e-4c47-9d73-2d46b4feaef0",
    "_rev": 1719002921086,
    "id": 24
  },
  {
    "enabled": false,
    "installDate": 1671795664100,
    "name": "RGAA 11.10 input required",
    "sections": [
      {
        "code": "html {\n\tcounter-reset: count;\n}\nbody::after {\n\tbackground-color: #333;\n\tbottom: 1em;\n\tcolor: #D3E8EE;\n\tfont: 400 1rem/1.5 sans-serif;\n\tfont-family: -apple-system, BlinkMacSystemFont, \"Segoe UI\", Roboto,\n\t\tOxygen-Sans, Ubuntu, Cantarell, \"Helvetica Neue\", sans-serif;\n\tleft: 1em;\n\tpadding: 0.75rem 1rem ;\n\tposition: fixed;\n\tright: auto;\n\ttop: auto;\n\twidth: auto;\n\twhite-space: pre;\n\tz-index: 2147483647;\n\tcontent: \"[required] : \" counter(count) \"\\a\";\n}\n\nform input[required],\nform select[required],\nform textarea[required] {\n    counter-increment: count !important;\n    border: #0026ff dashed 4px !important;\n}"
      }
    ],
    "updateDate": 1710345047333,
    "_id": "061577e6-f3a1-42cf-a1d7-ae3e778c5c7b",
    "_rev": 1719416647443,
    "id": 25
  },
  {
    "enabled": false,
    "installDate": 1679582137370,
    "name": "focus visible sticky header",
    "sections": [
      {
        "code": ".entry-content a {\n    scroll-margin-top: 10rem;\n}"
      }
    ],
    "updateDate": 1679582660883,
    "_id": "76aba849-d9f8-4b1a-a7cd-a0daa360bc41",
    "_rev": 1710349541341,
    "id": 26
  },
  {
    "enabled": false,
    "installDate": 1684761401559,
    "name": "RGAA 08.7 Changement de langue indiqué",
    "sections": [
      {
        "code": "html {\n\tcounter-reset: count;\n}\nbody::after {\n\tbackground-color: #333;\n\tbottom: 1em;\n\tcolor: #D3E8EE;\n\tfont: 400 1rem/1.5 sans-serif;\n\tfont-family: -apple-system, BlinkMacSystemFont, \"Segoe UI\", Roboto,\n\t\tOxygen-Sans, Ubuntu, Cantarell, \"Helvetica Neue\", sans-serif;\n\tleft: 1em;\n\tpadding: 0.75rem 1rem ;\n\tposition: fixed;\n\tright: auto;\n\ttop: auto;\n\twidth: auto;\n\twhite-space: pre;\n\tz-index: 2147483647;\n\tcontent: \"[lang] : \" counter(count) \"\\a\";\n}\n\nbody [lang] {\n    counter-increment: count !important;\n    border: #398c12 solid 1px !important;\n    border-radius: 0.5em;\n    margin-right: 1em !important;\n}\n\nbody [lang]:before {\n    counter-increment: count4 !important;\n    content: 'lang=\"' attr(lang) '\"';\n    padding-left: 0.5em;\n    padding-right: 0.5em;\n    border: 1px solid #398c12 !important;\n    background-color: #398c12 !important;\n    border-top-left-radius: 0.5em;\n    border-bottom-left-radius: 0.5em;\n    color: #fff !important;\n}"
      }
    ],
    "updateDate": 1710342807937,
    "_id": "c66fd31c-7091-4971-83ff-77a93606ae74",
    "_rev": 1714120350719,
    "id": 29
  },
  {
    "enabled": false,
    "installDate": 1688569193608,
    "name": "RGAA 10.08 Contenus cachés : à ignorer par les TA ?",
    "sections": [
      {
        "code": "/*  Vérifier également les display:none; et visibility:hidden\nPour chaque contenu caché, vérifier que :\n\n    * Soit le contenu caché a vocation à être ignoré par les technologies d’assistance (un élément statistique de visites par exemple) ;\n    * Soit le contenu caché n’a pas vocation à être ignoré par les technologies d’assistance, et dans ce cas il est rendu restituable par les technologies d’assistance au moyen :\n        * Soit d’une action de l’utilisateur réalisable au clavier ou par tout dispositif de pointage sur un élément précédent le contenu caché\n        * Soit d’une fonction de programmation qui repositionne le focus sur le contenu.\n\n*/\n\nhtml {\n    counter-reset: count count1;\n}\nbody::after {\n    background-color: #333;\n    bottom: 1em;\n    color: #D3E8EE;\n    font: 700 1.5rem/1.5 sans-serif;\n    font-family: -apple-system, BlinkMacSystemFont, \"Segoe UI\", Roboto,\n    Oxygen-Sans, Ubuntu, Cantarell, \"Helvetica Neue\", sans-serif;\n    left: 1em;\n    padding: 0.75rem 1rem;\n    position: fixed;\n    right: auto;\n    top: auto;\n    width: auto;\n    white-space: pre;\n    z-index: 2147483647;\n    content: \"Attributs hidden : \" counter(count) \"\\a\" \"Attributs aria-hidden : \" counter(count1) \"\\a\";\n}\n\n*[hidden] {\n    counter-increment: count !important;\n    border: red solid 4px !important;\n}\n\n*[aria-hidden=\"true\"] {\n    counter-increment: count1 !important;\n    border: red dashed 4px !important;\n}\n\n*[aria-hidden=\"true\"]::before {\n    content: '[aria-hidden=\"true\"]' !important;;\n    color: #c40f0f !important;\n    font-size: 0.875rem !important;\n    display: block !important;\n    background-color: #fefefe !important;\n    padding: 0.25rem 0.5rem !important;\n}"
      }
    ],
    "updateDate": 1707470027262,
    "_id": "85b8e19f-3976-4aa9-a7ce-b77eec2f9dc7",
    "_rev": 1718874712680,
    "id": 30
  },
  {
    "enabled": false,
    "installDate": 1688570256269,
    "name": "RGAA 10.09 et 10.10 aria-current",
    "sections": [
      {
        "code": "/*  Nécessite une inspection de la page et du code\n\nUne information donnée en gras, parce\nqu’un onglet est surélevé quand il est actif,\nparce que le mot-clé le plus utilisé est plus\ngros dans un nuage de tags... sont autant\nd’exemple qui rendent le critère applicable.\nÀ relier au critère 3.1 sur l’information\ndonnée par la couleur.\n\nVoir également les aria-label et attributs title\n\nPensez aux textes cachés pour signifier une différence ou une position.\n\n*/\n\nhtml {\n    counter-reset: count;\n}\nbody::after {\n    background-color: #333;\n    bottom: 1em;\n    color: #D3E8EE;\n    font: 400 1rem/1.5 sans-serif;\n    font-family: -apple-system, BlinkMacSystemFont, \"Segoe UI\", Roboto,\n    Oxygen-Sans, Ubuntu, Cantarell, \"Helvetica Neue\", sans-serif;\n    left: 1em;\n    padding: 0.75rem 1rem;\n    position: fixed;\n    right: auto;\n    top: auto;\n    width: auto;\n    white-space: pre;\n    z-index: 2147483647;\n    content: \"Aria-current : \" counter(count) \"\\a\";\n}\n\n*[aria-current] {\n    counter-increment: count !important;\n    border: green dashed 4px !important;\n}\n\n[aria-current]::before {\n    content: \"aria-current=\" attr(aria-current) !important;\n    display: inline-block;\n    font-size: 0.875rem !important;\n    font-weight: normal;\n    line-height: 1 !important;\n    color: #065106 !important;\n    background: #e6ffe6 !important;\n    text-transform: none !important;\n    border-radius: 0.25rem;\n    padding: 0.125rem;\n    margin-left: 0.25rem;\n    margin-right: 0.25rem;\n}"
      }
    ],
    "updateDate": 1710403967283,
    "_id": "492d52ff-b901-491d-8640-ccfd0beedaee",
    "_rev": 1718296374134,
    "id": 31
  },
  {
    "enabled": false,
    "installDate": 1700034813406,
    "name": "RGAA 09.1 Titres",
    "sections": [
      {
        "code": "html {\n    counter-reset: count;\n}\n\nbody::after {\n    background-color: #333;\n    bottom: 1em;\n    color: #D3E8EE;\n    font: 400 1.5rem/1.5 sans-serif;\n    font-family: -apple-system, BlinkMacSystemFont, \"Segoe UI\", Roboto,\n        Oxygen-Sans, Ubuntu, Cantarell, \"Helvetica Neue\", sans-serif;\n    left: 1em;\n    padding: 0.75rem 1rem ;\n    position: fixed;\n    right: auto;\n    top: auto;\n    width: auto;\n    white-space: pre;\n    z-index: 2147483647;\n    content: \"Titres : \" counter(count) \"\\a\";\n}\n\n/* on fait apparaître les balises div et sémantiques vides */\n\nh1,\nh2,\nh3,\nh4,\nh5,\nh6,\n[role=\"heading\"]{\n    border: 3px rgba(255, 0, 0, 0.5) solid !important;\n    border-radius: 0.5rem;\n    counter-increment: count !important;\n}\n\nh1::before,\nh2::before,\nh3::before,\nh4::before,\nh5::before,\nh6::before,\n[role=\"heading\"]::before {\n    content: \"<h2>\" !important;\n    font-size: 1rem !important;\n    background: rgba(255, 0, 0, 0.5) !important;\n    color: black !important;\n    display: inline-block !important;\n    font-weight: normal !important;\n    text-transform: none !important;\n    border-radius: 0.25rem;\n    padding: 0.125rem;\n    margin-left: 0.25rem;\n    margin-right: 0.25rem;\n}\n\nh1::before {\n    content: \"<h1>\" !important;\n}\n\nh2::before {\n    content: \"<h2>\" !important;\n}\n\nh3::before {\n    content: \"<h3>\" !important;\n}\n\nh4::before {\n    content: \"<h4>\" !important;\n}\n\nh5::before {\n    content: \"<h5>\" !important;\n}\n\nh6::before {\n    content: \"<h6>\" !important;\n}\n\n[role=\"heading\"][aria-level]::before {\n    content: \"<h\" attr(aria-level) \"> ARIA\" !important;\n}"
      }
    ],
    "updateDate": 1720102839872,
    "_id": "308060b8-b1cc-47a6-9c6b-66e91856f797",
    "_rev": 1720102861654,
    "id": 33
  },
  {
    "enabled": false,
    "installDate": 1701705173562,
    "name": "RGAA 11.13 autocomplete",
    "sections": [
      {
        "code": "html {\n\tcounter-reset: count;\n}\n\nbody::after {\n\tbackground-color: #333;\n\tbottom: 1em;\n\tcolor: #D3E8EE;\n\tfont: 400 1rem/1.5 sans-serif;\n\tfont-family: -apple-system, BlinkMacSystemFont, \"Segoe UI\", Roboto,\n\t\tOxygen-Sans, Ubuntu, Cantarell, \"Helvetica Neue\", sans-serif;\n\tleft: 1em;\n\tpadding: 0.75rem 1rem ;\n\tposition: fixed;\n\tright: auto;\n\ttop: auto;\n\twidth: auto;\n\twhite-space: pre;\n\tz-index: 2147483647;\n\tcontent: \"[autocomplete] : \" counter(count) \"\\a\";\n}\n\n\n/* on aimerait faire apparaître les valeurs d'autocomplete mais pas de :before sur les input */\n\ninput[autocomplete],\ntextarea[autocomplete] {\n    border: blue dashed 4px !important;\n    counter-increment: count !important;\n}\n\n"
      }
    ],
    "updateDate": 1710405510022,
    "_id": "3c9920b7-f447-4e76-9593-3add8ba4aa16",
    "_rev": 1719003414259,
    "id": 35
  },
  {
    "enabled": false,
    "installDate": 1701770544264,
    "name": "RGAA 07.5",
    "sections": [
      {
        "code": "html {\n\tcounter-reset: count countb countc;\n}\n\nbody::after {\n\tbackground-color: #333;\n\tbottom: 1em;\n\tcolor: #D3E8EE;\n\tfont: 400 1.5rem/1.5 sans-serif;\n\tfont-family: -apple-system, BlinkMacSystemFont, \"Segoe UI\", Roboto,\n\t\tOxygen-Sans, Ubuntu, Cantarell, \"Helvetica Neue\", sans-serif;\n\tleft: 1em;\n\tpadding: 0.75rem 1rem ;\n\tposition: fixed;\n\tright: auto;\n\ttop: auto;\n\twidth: auto;\n\twhite-space: pre;\n\tz-index: 2147483647;\n    content: \"role=alert : \" counter(count) \"\\a role=status : \" counter(countb) \"\\a aria-live : \" counter(countc) \"\\a\";\n}\n\n[role=\"alert\"]::before,\n[role=\"status\"]::before,\n[aria-live]::before {\n    display: block !important;\n    padding: 0.25rem !important;\n    font: 400 1.25rem/1.5 sans-serif !important;\n    color: black !important;\n\n}\n\n[role=\"alert\"] {\n    counter-increment: count !important;\n    border: 2px #df0f47 dashed !important;\n}\n\n[role=\"status\"] {\n    counter-increment: countb !important;\n    border: 2px #358a24 dashed !important;\n}\n\n[aria-live] {\n    counter-increment: countc !important;\n    border: 2px #2b248a dashed !important;\n}\n\n[role=\"alert\"]::before {\n    content: \"role=alert\" !important;\n    background: #fdc0b9 !important;\n\n}\n\n[role=\"status\"]::before {\n    content: \"role=status\" !important;\n    background: #c5ffd3 !important;\n\n}\n\n[aria-live]::before {\n    content: \"aria-live\" !important;\n    background: #dbf0f9 !important;\n}"
      }
    ],
    "updateDate": 1709914185177,
    "_id": "d460b84f-19ca-4f5c-88b7-ceade2bf2c59",
    "_rev": 1720006217965,
    "id": 36
  },
  {
    "enabled": false,
    "installDate": 1706028049256,
    "name": "RGAA 09.4 citations q et blockquote",
    "sections": [
      {
        "code": "html {\n\tcounter-reset: countq countb;\n}\n\nbody::after {\n\tbackground-color: #333;\n\tbottom: 1em;\n\tcolor: #D3E8EE;\n\tfont: 400 1rem/1.5 sans-serif;\n\tfont-family: -apple-system, BlinkMacSystemFont, \"Segoe UI\", Roboto,\n\t\tOxygen-Sans, Ubuntu, Cantarell, \"Helvetica Neue\", sans-serif;\n\tleft: 1em;\n\tpadding: 0.75rem 1rem ;\n\tposition: fixed;\n\tright: auto;\n\ttop: auto;\n\twidth: auto;\n\twhite-space: pre;\n\tz-index: 2147483647;\n\tcontent: \"Citations <q> : \" counter(countq) \"\\a\" \"Blocs de citation : \" counter(countb) \"\\a\" ;\n}\n\n\n/* on fait apparaître les balises q et blockquote */\n\nq::before {\n    content: \"<q>\";\n    font-size: 1.25rem !important;\n    background: rgba(255, 0, 0, 0.5);\n    color: black;\n    display: inline-block;\n    counter-increment: countq !important;\n}\n\nblockquote::before {\n    content: \"<blockquote>\";\n    font-size: 1.25rem !important;\n    background: rgba(0, 255, 170, .5);\n    color: black;\n    display: block;\n    counter-increment: countb !important;\n}\n\n"
      }
    ],
    "updateDate": 1710343039077,
    "_id": "b1d891c2-3b39-4bb8-a52c-03081c788f96",
    "_rev": 1713782328746,
    "id": 37
  },
  {
    "enabled": false,
    "installDate": 1706698290839,
    "name": "00 Balises et attributs par thématiques",
    "sections": [
      {
        "code": "/* On liste balises et attributs pour détecter les thématiques applicables */\nhtml {\n    counter-reset: thematique1-img thematique1-canvas thematique1-embed thematique1-object thematique1-svg thematique1-longdesc thematique1-figure thematique1-map thematique1-area thematique2 thematique4 thematique5 thematique7-1 expand thematique7-5 lang dir citations current hidden-content thematique11-form thematique11-regroupement aria-group bureautique;\n}\n\nhtml::after {\n    background-color: #333;\n    color: #D3E8EE;\n    font: 400 0.75rem/1.45 sans-serif !important;\n    font-family: -apple-system, BlinkMacSystemFont, \"Segoe UI\", Roboto,\n    Oxygen-Sans, Ubuntu, Cantarell, \"Helvetica Neue\", sans-serif;\n    left: 1em;\n    padding: 0.75rem 1rem;\n    position: fixed;\n    right: auto;\n    top: 1em;\n    width: auto;\n    white-space: pre;\n    z-index: 2147483648;\n    content: \"html[lang] : \" attr(lang);\n}\n\nbody::after {\n    column-count: 2;\n    column-gap: 10px;\n    background-color: #333;\n    bottom: 1em;\n    color: #D3E8EE;\n    font: 400 0.75rem/1.45 sans-serif !important;\n    font-family: -apple-system, BlinkMacSystemFont, \"Segoe UI\", Roboto,\n    Oxygen-Sans, Ubuntu, Cantarell, \"Helvetica Neue\", sans-serif;\n    left: 1em;\n    padding: 0.75rem 1rem;\n    position: fixed;\n    right: auto;\n    top: auto;\n    width: auto;\n    white-space: pre;\n    z-index: 2147483647;\n    content: \"BALISES & ATTRIBUTS\\A\\ATHÉMATIQUE 1\\A\" \n        counter(thematique1-img) \" img ou role img,\\A\" \n        counter(thematique1-longdesc) \" [longdesc],\\A\" \n        counter(thematique1-svg) \" svg,\\A\" \n        counter(thematique1-embed) \" embed,\\A\" \n        counter(thematique1-object) \" object,\\A\" \n        counter(thematique1-canvas) \" canvas,\\A\" \n        counter(thematique1-figure) \" figure,\\A\" \n        counter(thematique1-map) \" map,\\A\" \n        counter(thematique1-map) \" area\\A\\ATHÉMATIQUE 2\\A\" \n        counter(thematique2) \" iframe\\A\\ATHÉMATIQUE 4\\A\" \n        counter(thematique4) \" balises video/audio\\A\\ATHÉMATIQUE 5\\A\" \n        counter(thematique5) \" table\\A\\A\\ATHÉMATIQUE 7\\A\" \n        counter(thematique7-1) \" roles ARIA,\\A\"\n        counter(expand) \" [aria-expanded],\\A\"\n        counter(thematique7-5) \" [aria-live]\\A\\ATHÉMATIQUE 8\\A\" \n        counter(lang) \" [lang],\\A\"\n        counter(dir) \" [dir]\\A\\ATHÉMATIQUE 9\\A\"\n        counter(citations) \" citations\\A\\ATHÉMATIQUE 10\\A\" \n        counter(hidden-content) \" [hidden] ou [aria-hidden],\\A\" \n        counter(current) \" [aria-current]\\A\\ATHÉMATIQUE 11\\A\" \n        counter(thematique11-form) \" champs de formulaires,\\A\" \n        counter(thematique11-regroupement) \" fieldset,\\A\" \n        counter(aria-group) \" role group\\A\\ATHÉMATIQUE 13\\A\" \n        counter(bureautique) \" fichiers bureautique\" !important;\n}\n\nimg,\n[role=\"img\"] {\n    counter-increment: thematique1-img;\n}\n\ncanvas {\n    counter-increment: thematique1-canvas;\n}\n\nembed {\n    counter-increment: thematique1-embed;\n}\n\nobject {\n    counter-increment: thematique1-object;\n}\n\nsvg {\n    counter-increment: thematique1-svg;\n}\n\n[longdesc] {\n    counter-increment: thematique1-longdesc;\n}\n\nfigure {\n    counter-increment: thematique1-figure;\n}\n\nmap {\n    counter-increment: thematique1-map;\n}\n\narea {\n    counter-increment: thematique1-area;\n}\n\niframe {\n    counter-increment: thematique2;\n}\n\naudio,\nvideo {\n    counter-increment: thematique4;\n}\n\ntable,\n[role=\"table\"] {\n    counter-increment: thematique5;\n}\n\n[role]:not(:is([role=\"banner\"],[role=\"search\"],[role=\"navigation\"],[role=\"main\"],[role=\"contentinfo\"])) {\n    counter-increment: thematique7-1;\n}\n\n[aria-expanded] {\n    counter-increment: expand;\n}\n\n[role=\"alert\"],\n[role=\"status\"],\n[aria-live] {\n    counter-increment: thematique7-5;\n}\n\n[lang]:not(html) {\n    counter-increment: lang;\n}\n\n[dir]:not(html) {\n    counter-increment: dir;\n}\n\nq,\nblockquote {\n    counter-increment: citations;\n}\n\nhidden,\n[aria-hidden] {\n    counter-increment: hidden-content;\n}\n\n[aria-current] {\n    counter-increment: current;\n}\n\ninput,\nselect,\ntextarea,\ndatalist,\noptgroup,\noption,\nkeygen,\noutput,\nprogress,\nmeter {\n    counter-increment: thematique11-form;\n}\n\nfieldset {\n    counter-increment: thematique11-regroupement;\n}\n\n[role=\"group\"] {\n    counter-increment: aria-group;\n}\n\na[href$=\".doc\"],\na[href$=\".docx\"],\na[href$=\".xls\"],\na[href$=\".xlsx\"],\na[href$=\".ppt\"],\na[href$=\".pptx\"],\na[href$=\".odt\"],\na[href$=\".ods\"],\na[href$=\".pdf\"] {\n    counter-increment: bureautique;\n}\n"
      }
    ],
    "updateDate": 1716467323435,
    "_id": "f66ab53e-8f66-4142-aecd-58d98ac019c2",
    "_rev": 1719993573636,
    "id": 38
  },
  {
    "enabled": false,
    "installDate": 1707488911469,
    "name": "RGAA 12.08 tabindex",
    "sections": [
      {
        "code": "/* Tester en live au clavier et aussi avec des outils comme Taba11y ou Web ext de Tanaguru\nVérifier aussi la mise en page CSS avec float ou avec des éléments absolus.\n*/\n\nhtml {\n    counter-reset: count-1 count0 countx;\n}\nbody::after {\n    background-color: #333;\n    bottom: 1em;\n    color: #D3E8EE;\n    font: 400 1rem/1.5 sans-serif;\n    font-family: -apple-system, BlinkMacSystemFont, \"Segoe UI\", Roboto,\n    Oxygen-Sans, Ubuntu, Cantarell, \"Helvetica Neue\", sans-serif;\n    left: 1em;\n    padding: 0.75rem 1rem;\n    position: fixed;\n    right: auto;\n    top: auto;\n    width: auto;\n    white-space: pre;\n    z-index: 2147483647;\n    content: 'tabindex=\"-1\" : ' counter(count-1) '\\a tabindex=\"0\" : ' counter(count0) '\\a tabindex > 0 : ' counter(countx);\n}\n\na[tabindex],\n[role=\"link\"][tabindex],\n[role=\"button\"][tabindex],\nbutton[tabindex],\ninput[tabindex],\nselect[tabindex],\ntextarea[tabindex] {\n    display: block;\n    outline: 5px #e61441 solid !important;\n\n}\n\na[tabindex=\"-1\"],\n[role=\"link\"][tabindex=\"-1\"],\n[role=\"button\"][tabindex=\"-1\"],\nbutton[tabindex=\"-1\"],\ninput[tabindex=\"-1\"],\nselect[tabindex=\"-1\"],\ntextarea[tabindex=\"-1\"] {\n    display: block;\n    outline: 5px #ad471f dashed !important;\n    counter-increment: count-1;\n}\n\n\na[tabindex=\"0\"],\n[role=\"link\"][tabindex=\"0\"],\n[role=\"button\"][tabindex=\"0\"],\nbutton[tabindex=\"0\"],\ninput[tabindex=\"0\"],\nselect[tabindex=\"0\"],\ntextarea[tabindex=\"0\"] {\n    display: block;\n    outline: 3px #0d1193 dotted !important;\n    counter-increment: count0;\n}\n\n[tabindex=\"1\"],\n[tabindex=\"2\"],\n[tabindex=\"3\"],\n[tabindex=\"4\"],\n[tabindex=\"5\"],\n[tabindex=\"6\"],\n[tabindex=\"7\"],\n[tabindex=\"8\"],\n[tabindex=\"9\"],\n[tabindex=\"10\"],\n[tabindex=\"11\"],\n[tabindex=\"12\"],\n[tabindex=\"13\"],\n[tabindex=\"14\"],\n[tabindex=\"15\"],\n[tabindex=\"16\"],\n[tabindex=\"17\"],\n[tabindex=\"18\"],\n[tabindex=\"19\"],\n[tabindex=\"20\"] {\n    display: block;\n    border: 7px #e61441 dotted !important;\n    counter-increment: countx;\n}\n\na[tabindex]:after,\n[role=\"link\"][tabindex]:after,\n[role=\"button\"][tabindex]:after,\nbutton[tabindex]:after,\ninput[tabindex]:after,\nselect[tabindex]:after,\ntextarea[tabindex]:after {\n    content: 'tabindex=\"'attr(tabindex)'\"' !important;\n    padding: 0.2em 0.25em;\n    background-color: #e61441;\n    color: #fff;\n}"
      }
    ],
    "updateDate": 1710405693260,
    "_id": "e6cfb9ac-cecf-4f0d-a858-0b04124579d6",
    "_rev": 1720008230630,
    "id": 41
  },
  {
    "enabled": false,
    "installDate": 1707490094605,
    "name": "RGAA 13.03 fichiers pdf, etc",
    "sections": [
      {
        "code": "/* Détecte des liens vers des fichiers de bureautique mais vérifier également s'il existe des fichiers via des fonctions JavaScript que ce style ne pourra pas détecter ! */\n\nhtml {\n   counter-reset:  \n                    doc\n                    docx\n                    xls\n                    xlsx\n                    ppt\n                    pptx\n                    odt\n                    ods\n                    pdf;\n}\n\nbody::after {\n    background-color: #333;\n    bottom: 1em;\n    color: #D3E8EE;\n    font: 400 1.5rem/1.5 sans-serif;\n    font-family: -apple-system, BlinkMacSystemFont, \"Segoe UI\", Roboto,\n    Oxygen-Sans, Ubuntu, Cantarell, \"Helvetica Neue\", sans-serif;\n    left: 1em;\n    padding: 0.75rem 1rem;\n    position: fixed;\n    right: auto;\n    top: auto;\n    width: auto;\n    white-space: pre;\n    z-index: 2147483647;\n    content: \"\" counter(doc) \" doc\\A\"\n            \"\" counter(docx) \" docx\\A\"\n\t\t\t\"\" counter(xls) \" xls\\A\"\n\t\t\t\"\" counter(xlsx) \" xlsx\\A\"\n\t\t\t\"\" counter(ppt) \" ppt\\A\"\n\t\t\t\"\" counter(pptx) \" pptx\\A\"\n\t\t\t\"\" counter(odt) \" odt\\A\"\n\t\t\t\"\" counter(ods) \" ods\\A\"\n\t\t\t\"\" counter(pdf) \" pdf\\A\";\n}\n\na[href$=\".doc\"],\na[href$=\".docx\"],\na[href$=\".xls\"],\na[href$=\".xlsx\"],\na[href$=\".ppt\"],\na[href$=\".pptx\"],\na[href$=\".odt\"],\na[href$=\".ods\"],\na[href$=\".pdf\"] {\n    display: block!important;\n    margin-bottom: 3px!important;\n    outline: 5px solid #e61111!important;\n}\n\n[href$=\".doc\"] {counter-increment: doc;}\n[href$=\".docx\"]{counter-increment: docx;}\n[href$=\".xls\"] {counter-increment: xls;}\n[href$=\".xlsx\"] {counter-increment: xlsx;}\n[href$=\".ppt\"] {counter-increment: ppt;}\n[href$=\".pptx\"] {counter-increment: pptx;}\n[href$=\".odt\"] {counter-increment: odt;}\n[href$=\".ods\"] {counter-increment: ods;}\n[href$=\".pdf\"] {counter-increment: pdf;}\n"
      }
    ],
    "updateDate": 1710405829535,
    "_id": "6cdfed19-084b-46bc-9a3d-199934635641",
    "_rev": 1718300876919,
    "id": 42
  },
  {
    "enabled": false,
    "installDate": 1707490501636,
    "name": "RGAA 10.02 injections CSS",
    "sections": [
      {
        "code": "/* On met en évidence tous les contenus injectés en CSS */\n\n*::before,\n*::after {\n    border: 5px #a823af dashed !important;\n    counter-increment: count !important;\n}\n\nhtml {\n    counter-reset: count count1 count2;\n}\nbody::after {\n    background-color: #333;\n    border-color: #333 !important;\n    bottom: 1em;\n    color: #D3E8EE;\n    font: 400 1rem/1.5 sans-serif;\n    font-family: -apple-system, BlinkMacSystemFont, \"Segoe UI\", Roboto,\n    Oxygen-Sans, Ubuntu, Cantarell, \"Helvetica Neue\", sans-serif;\n    left: 1em;\n    padding: 0.75rem 1rem;\n    position: fixed;\n    right: auto;\n    top: auto;\n    width: auto;\n    white-space: pre;\n    z-index: 2147483647;\n    content: \"Injections CSS - - - : \" counter(count) \"\\a\";\n}\n\n\n"
      }
    ],
    "updateDate": 1710403678139,
    "_id": "cac61791-4dc2-4f40-832a-64af3070b5db",
    "_rev": 1718297360695,
    "id": 43
  },
  {
    "enabled": false,
    "installDate": 1707493871378,
    "name": "RGAA 07.1 roles",
    "sections": [
      {
        "code": "/* On affiche les roles pour identifier des motifs de conception\n\n*/\n\n/* message */\n[role]::before {\n    background-color: #0f6d2a !important;\n    color: #fff !important;\n    font-size: 0.875rem !important;\n    border-radius: 0.25rem;\n    padding: 0.125rem;\n    margin-right: 0.25rem;\n}\n\n/* roles hors landmarks et autres roles qui ne concernent pas les scripts */\n[role]:not(:is([role=\"banner\"],[role=\"search\"],[role=\"navigation\"],[role=\"main\"],[role=\"contentinfo\"]))::before {\n    content: 'role=\"'attr(role)'\"' !important;\n}\n\n"
      }
    ],
    "updateDate": 1709914909275,
    "_id": "bbdfc646-4a0f-47f3-80a7-25e4a27ca6b1",
    "_rev": 1719927186775,
    "id": 44
  },
  {
    "enabled": false,
    "installDate": 1711019176138,
    "name": "RGAA 07.1 aria-expanded",
    "sections": [
      {
        "code": "/* On affiche les aria- qui nous intéressent\n\n*/\n\n\n[aria-expanded]::before {\n    content: 'aria-expanded=\"'attr(aria-expanded)'\"' !important;\n    background-color: #be1259 !important;\n    color: #fff !important;\n    font-size: 0.875rem !important;\n    font-family: sans-serif;\n    border-radius: 0.25rem;\n    padding: 0.25rem;\n    margin-right: 0.25rem;\n}\n\n"
      }
    ],
    "updateDate": 1717509858275,
    "_id": "750be2e8-bf02-4202-aaa0-394f21532cd7",
    "_rev": 1718708559318,
    "id": 46
  }
]