<?xml version="1.0" encoding="utf-8"?>
<!-- Generator: Adobe Illustrator 21.0.2, SVG Export Plug-In . SVG Version: 6.00 Build 0)  -->
<svg version="1.1" id="Calque_1" xmlns="http://www.w3.org/2000/svg" xmlns:xlink="http://www.w3.org/1999/xlink" x="0px" y="0px"
	 viewBox="0 0 6 10" style="enable-background:new 0 0 6 10;" xml:space="preserve">
<style type="text/css">
	.st0{fill:#FFFFFF;}
</style>
<g>
	<path class="st0" d="M5,2H1C0.4,2,0,1.6,0,1v0c0-0.6,0.4-1,1-1h4c0.6,0,1,0.4,1,1v0C6,1.6,5.6,2,5,2z"/>
</g>
<g>
	<path class="st0" d="M5,6H1C0.4,6,0,5.6,0,5v0c0-0.6,0.4-1,1-1h4c0.6,0,1,0.4,1,1v0C6,5.6,5.6,6,5,6z"/>
</g>
<g>
	<path class="st0" d="M5,10H1c-0.6,0-1-0.4-1-1v0c0-0.6,0.4-1,1-1h4c0.6,0,1,0.4,1,1v0C6,9.6,5.6,10,5,10z"/>
</g>
</svg>
